{
   "userProfile":    {
      "channelProfiles":       [
                  {
            "image": null,
            "imageDate": "2014-08-29T13:59:30.000+0000",
            "tileViews": [            {
               "index": 0,
               "isHeroEnabled": true,
               "tiles":                [
                                    {
                     "canMove": true,
                     "heroTileAbility": false,
                     "launchesWebView": false,
                     "name": "",
                     "order": 1,
                     "removableFromActiveView": false,
                     "systemPrincipalIdentifier":                      {
                        "locale": null,
                        "systemPrincipalId": null,
                        "systemPrincipalKey": null
                     },
                     "tileId": null,
                     "tileMetadata": [],
                     "tileThemeColor": "GREY_BLUE",
                     "tileType": "EMPTY",
                     "titleLabel": "EMPTY",
                     "webViewUrl": ""
                  },
                                    {
                     "canMove": true,
                     "heroTileAbility": false,
                     "launchesWebView": true,
                     "name": "",
                     "order": 1,
                     "removableFromActiveView": false,
                     "systemPrincipalIdentifier":                      {
                        "locale": null,
                        "systemPrincipalId": null,
                        "systemPrincipalKey": null
                     },
                     "tileId": null,
                     "tileMetadata": [],
                     "tileThemeColor": "GREY_BLUE",
                     "tileType": "LIBRARY",
                     "titleLabel": "LIBRARY",
                     "webViewUrl": ""
                  },
                                    {
                     "canMove": true,
                     "heroTileAbility": false,
                     "launchesWebView": false,
                     "name": "",
                     "order": 1,
                     "removableFromActiveView": false,
                     "systemPrincipalIdentifier":                      {
                        "locale": null,
                        "systemPrincipalId": null,
                        "systemPrincipalKey": null
                     },
                     "tileId": null,
                     "tileMetadata": [],
                     "tileThemeColor": "GREY_BLUE",
                     "tileType": "EMPTY",
                     "titleLabel": "EMPTY",
                     "webViewUrl": ""
                  },
                                    {
                     "canMove": true,
                     "heroTileAbility": false,
                     "launchesWebView": false,
                     "name": "",
                     "order": 1,
                     "removableFromActiveView": false,
                     "systemPrincipalIdentifier":                      {
                        "locale": null,
                        "systemPrincipalId": null,
                        "systemPrincipalKey": null
                     },
                     "tileId": null,
                     "tileMetadata": [],
                     "tileThemeColor": "GREY_BLUE",
                     "tileType": "EMPTY",
                     "titleLabel": "EMPTY",
                     "webViewUrl": ""
                  },
                                    {
                     "canMove": true,
                     "heroTileAbility": false,
                     "launchesWebView": false,
                     "name": "",
                     "order": 1,
                     "removableFromActiveView": false,
                     "systemPrincipalIdentifier":                      {
                        "locale": null,
                        "systemPrincipalId": null,
                        "systemPrincipalKey": null
                     },
                     "tileId": null,
                     "tileMetadata": [],
                     "tileThemeColor": "GREY_BLUE",
                     "tileType": "EMPTY",
                     "titleLabel": "EMPTY",
                     "webViewUrl": ""
                  },
                                    {
                     "canMove": true,
                     "heroTileAbility": false,
                     "launchesWebView": false,
                     "name": "",
                     "order": 2,
                     "removableFromActiveView": false,
                     "systemPrincipalIdentifier":                      {
                        "locale": null,
                        "systemPrincipalId": null,
                        "systemPrincipalKey": null
                     },
                     "tileId": null,
                     "tileMetadata": [],
                     "tileThemeColor": "GREY_BLUE",
                     "tileType": "EMPTY",
                     "titleLabel": "EMPTY",
                     "webViewUrl": ""
                  }
               ]
            }],
            "profileId": "521",
            "profileName": "My Personal Dashboard",
            "profileStyle": "PERSONAL",
            "systemPrincipalIdentifiers": []
         },
                  {
            "image": null,
            "imageDate": "2014-08-29T14:07:41.000+0000",
            "tileViews":             [
                              {
                  "index": 0,
                  "isHeroEnabled": true,
                  "tiles":                   [
                                          {
                        "canMove": true,
                        "heroTileAbility": true,
                        "launchesWebView": false,
                        "name": "EBANK2",
                        "order": 1,
                        "removableFromActiveView": false,
                        "systemPrincipalIdentifier":                         {
                           "locale": null,
                           "systemPrincipalId": null,
                           "systemPrincipalKey": null
                        },
                        "tileId": null,
                        "tileMetadata": [                        {
                           "tileMetadataType": "ACCOUNT_UNIQUE_NUMBER",
                           "value": "05694038270"
                        }],
                        "tileThemeColor": "BLUE",
                        "tileType": "ACCOUNT_TILE",
                        "titleLabel": "EBANK2",
                        "webViewUrl": ""
                     },
                                          {
                        "canMove": true,
                        "heroTileAbility": false,
                        "launchesWebView": true,
                        "name": "",
                        "order": 1,
                        "removableFromActiveView": false,
                        "systemPrincipalIdentifier":                         {
                           "locale": null,
                           "systemPrincipalId": null,
                           "systemPrincipalKey": null
                        },
                        "tileId": null,
                        "tileMetadata": [],
                        "tileThemeColor": "GREY_BLUE",
                        "tileType": "LIBRARY",
                        "titleLabel": "LIBRARY",
                        "webViewUrl": ""
                     },
                                          {
                        "canMove": true,
                        "heroTileAbility": true,
                        "launchesWebView": false,
                        "name": "EBANK2",
                        "order": 1,
                        "removableFromActiveView": false,
                        "systemPrincipalIdentifier":                         {
                           "locale": null,
                           "systemPrincipalId": null,
                           "systemPrincipalKey": null
                        },
                        "tileId": null,
                        "tileMetadata": [                        {
                           "tileMetadataType": "ACCOUNT_UNIQUE_NUMBER",
                           "value": "05694039590"
                        }],
                        "tileThemeColor": "BLUE",
                        "tileType": "ACCOUNT_TILE",
                        "titleLabel": "EBANK2",
                        "webViewUrl": ""
                     },
                                          {
                        "canMove": true,
                        "heroTileAbility": true,
                        "launchesWebView": false,
                        "name": "EBANK2",
                        "order": 1,
                        "removableFromActiveView": false,
                        "systemPrincipalIdentifier":                         {
                           "locale": null,
                           "systemPrincipalId": null,
                           "systemPrincipalKey": null
                        },
                        "tileId": null,
                        "tileMetadata": [                        {
                           "tileMetadataType": "ACCOUNT_UNIQUE_NUMBER",
                           "value": "05694036810"
                        }],
                        "tileThemeColor": "GREEN",
                        "tileType": "ACCOUNT_TILE",
                        "titleLabel": "EBANK2",
                        "webViewUrl": ""
                     },
                                          {
                        "canMove": true,
                        "heroTileAbility": true,
                        "launchesWebView": false,
                        "name": "EBANK2",
                        "order": 1,
                        "removableFromActiveView": false,
                        "systemPrincipalIdentifier":                         {
                           "locale": null,
                           "systemPrincipalId": null,
                           "systemPrincipalKey": null
                        },
                        "tileId": null,
                        "tileMetadata": [                        {
                           "tileMetadataType": "ACCOUNT_UNIQUE_NUMBER",
                           "value": "05694068690"
                        }],
                        "tileThemeColor": "GREEN",
                        "tileType": "ACCOUNT_TILE",
                        "titleLabel": "EBANK2",
                        "webViewUrl": ""
                     },
                                          {
                        "canMove": true,
                        "heroTileAbility": true,
                        "launchesWebView": false,
                        "name": "EBANK2",
                        "order": 2,
                        "removableFromActiveView": false,
                        "systemPrincipalIdentifier":                         {
                           "locale": null,
                           "systemPrincipalId": null,
                           "systemPrincipalKey": null
                        },
                        "tileId": null,
                        "tileMetadata": [                        {
                           "tileMetadataType": "ACCOUNT_UNIQUE_NUMBER",
                           "value": "05694067370"
                        }],
                        "tileThemeColor": "ORANGE",
                        "tileType": "ACCOUNT_TILE",
                        "titleLabel": "EBANK2",
                        "webViewUrl": ""
                     }
                  ]
               },
                              {
                  "index": 1,
                  "isHeroEnabled": true,
                  "tiles":                   [
                                          {
                        "canMove": true,
                        "heroTileAbility": true,
                        "launchesWebView": null,
                        "name": "EBANK2",
                        "order": null,
                        "removableFromActiveView": false,
                        "systemPrincipalIdentifier": null,
                        "tileId": null,
                        "tileMetadata": [                        {
                           "tileMetadataType": "ACCOUNT_UNIQUE_NUMBER",
                           "value": "600000360200"
                        }],
                        "tileThemeColor": "BLUE",
                        "tileType": "ACCOUNT_TILE",
                        "titleLabel": "EBANK2",
                        "webViewUrl": null
                     },
                                          {
                        "canMove": true,
                        "heroTileAbility": true,
                        "launchesWebView": null,
                        "name": "Recipient Management",
                        "order": null,
                        "removableFromActiveView": false,
                        "systemPrincipalIdentifier": null,
                        "tileId": null,
                        "tileMetadata": [],
                        "tileThemeColor": "GREY_BLUE",
                        "tileType": "RECIPIENTS",
                        "titleLabel": "Recipient Management",
                        "webViewUrl": null
                     },
                                          {
                        "canMove": true,
                        "heroTileAbility": true,
                        "launchesWebView": null,
                        "name": "EBANK2",
                        "order": null,
                        "removableFromActiveView": false,
                        "systemPrincipalIdentifier": null,
                        "tileId": null,
                        "tileMetadata": [                        {
                           "tileMetadataType": "ACCOUNT_UNIQUE_NUMBER",
                           "value": "600000371320"
                        }],
                        "tileThemeColor": "ORANGE",
                        "tileType": "ACCOUNT_TILE",
                        "titleLabel": "EBANK2",
                        "webViewUrl": null
                     },
                                          {
                        "canMove": true,
                        "heroTileAbility": true,
                        "launchesWebView": null,
                        "name": "EBANK2",
                        "order": null,
                        "removableFromActiveView": false,
                        "systemPrincipalIdentifier": null,
                        "tileId": null,
                        "tileMetadata": [                        {
                           "tileMetadataType": "ACCOUNT_UNIQUE_NUMBER",
                           "value": "600000363140"
                        }],
                        "tileThemeColor": "ORANGE",
                        "tileType": "ACCOUNT_TILE",
                        "titleLabel": "EBANK2",
                        "webViewUrl": null
                     },
                                          {
                        "canMove": true,
                        "heroTileAbility": false,
                        "launchesWebView": null,
                        "name": null,
                        "order": null,
                        "removableFromActiveView": null,
                        "systemPrincipalIdentifier": null,
                        "tileId": null,
                        "tileMetadata": [],
                        "tileThemeColor": null,
                        "tileType": "EMPTY",
                        "titleLabel": null,
                        "webViewUrl": null
                     },
                                          {
                        "canMove": true,
                        "heroTileAbility": false,
                        "launchesWebView": null,
                        "name": null,
                        "order": null,
                        "removableFromActiveView": null,
                        "systemPrincipalIdentifier": null,
                        "tileId": null,
                        "tileMetadata": [],
                        "tileThemeColor": null,
                        "tileType": "EMPTY",
                        "titleLabel": null,
                        "webViewUrl": null
                     }
                  ]
               }
            ],
            "profileId": "522",
            "profileName": "My Personal Dashboard",
            "profileStyle": "PERSONAL",
            "systemPrincipalIdentifiers": [            {
               "locale": null,
               "systemPrincipalId": "221",
               "systemPrincipalKey": "SBSA_BANKING"
            }]
         }
      ],
      "channelSettings": [],
      "defaultProfileId": "521",
      "digitalId":       {
         "devices": [],
         "password": null,
         "systemPrincipals": [],
         "username": "sujeetness@test.com"
      },
      "lastLoggedIn": "2014-08-29T02:03:39.000+0000",
      "preferredName": null
   },
   "keyValueMetadata": [],
   "stepUp": null
}